Read and Write Rectangular Text Data Quickly • vroom
…
# install.packages("devtools")
devtools::install_dev("vroom")

Usage

See getting started to jump start your use of vroom!

vroom uses the same interface as readr to specify column types.

vroom::vroom("mtcars.tsv",
  col_types = list(cyl = "i", gear = "f",hp = "i", disp = "_",
                   drat = "_", vs = "l", am = "l", carb = "i")
)
#> # A tibble: 32 x 10
#>   model           mpg   cyl    hp    wt  qsec vs    am    gear   carb
#>   <chr>         <dbl> <int> <int> <dbl> <dbl> <lgl> <lgl> <fct> <int>
#> 1 Mazda RX4      21       6   110  2.62  16.5 FALSE TRUE  4         4
#> 2 Mazda RX4 Wag  21       6   110  2.88  17.0 FALSE TRUE  4         4
#> 3 Datsun 710     22.8     4    93  2.32  18.6 TRUE  TRUE  4         1
#> # … with 29 more rows
…
#> flights_9E.tsv flights_AA.tsv flights_AS.tsv flights_B6.tsv flights_DL.tsv 
#> flights_EV.tsv flights_F9.tsv flights_FL.tsv flights_HA.tsv flights_MQ.tsv 
#> flights_OO.tsv flights_UA.tsv flights_US.tsv flights_VX.tsv flights_WN.tsv 
#> flights_YV.tsv
vroom::vroom(files)
#> Rows: 336776 Columns: 19
#> ── Column specification ────────────────────────────────────────────────────────
#> Delimiter: "\t"
#> chr   (4): carrier, tailnum, origin, dest
#> dbl  (14): year, month, day, dep_time, sched_dep_time, dep_delay, arr_time, ...
#> dttm  (1): time_hour
#> 
#> ℹ Use `spec()` to retrieve the full column specification for this data.
#> ℹ Specify the column types or set `show_col_types = FALSE` to quiet this message.
#> # A tibble: 336,776 x 19
#>    year month   day dep_time sched_dep_time dep_delay arr_time sched_arr_time
#>   <dbl> <dbl> <dbl>    <dbl>          <dbl>     <dbl>    <dbl>          <dbl>
#> 1  2013     1     1      810            810         0     1048           1037
#> 2  2013     1     1     1451           1500        -9     1634           1636
#> 3  2013     1     1     1452           1455        -3     1637           1639
#> # … with 336,773 more rows, and 11 more variables: arr_delay <dbl>,
#> #   carrier <chr>, flight <dbl>, tailnum <chr>, origin <chr>, dest <chr>,
#> #   air_time <dbl>, distance <dbl>, hour <dbl>, minute <dbl>, time_hour <dttm>
…
