Get started with vroom • vroom
…
# Read the file, by default vroom will guess the delimiter automatically.
vroom(file)
#> Rows: 32
#> Columns: 12
#> Delimiter: ","
#> chr [ 1]: model
#> dbl [11]: mpg, cyl, disp, hp, drat, wt, qsec, vs, am, gear, carb
#> 
#> Use `spec()` to retrieve the guessed column specification
#> Pass a specification to the `col_types` argument to quiet this message
#> # A tibble: 32 x 12
#>   model          mpg   cyl  disp    hp  drat    wt  qsec    vs    am  gear  carb
#>   <chr>        <dbl> <dbl> <dbl> <dbl> <dbl> <dbl> <dbl> <dbl> <dbl> <dbl> <dbl>
#> 1 Mazda RX4     21       6   160   110  3.9   2.62  16.5     0     1     4     4
#> 2 Mazda RX4 W…  21       6   160   110  3.9   2.88  17.0     0     1     4     4
#> 3 Datsun 710    22.8     4   108    93  3.85  2.32  18.6     1     1     4     1
#> # … with 29 more rows

# You can also specify it explicitly, which is (slightly) faster, and safer if
# you know how the file is delimited.
vroom(file, delim = ",")
#> Rows: 32
#> Columns: 12
#> Delimiter: ","
#> chr [ 1]: model
#> dbl [11]: mpg, cyl, disp, hp, drat, wt, qsec, vs, am, gear, carb
#> 
#> Use `spec()` to retrieve the guessed column specification
#> Pass a specification to the `col_types` argument to quiet this message
#> # A tibble: 32 x 12
#>   model          mpg   cyl  disp    hp  drat    wt  qsec    vs    am  gear  carb
#>   <chr>        <dbl> <dbl> <dbl> <dbl> <dbl> <dbl> <dbl> <dbl> <dbl> <dbl> <dbl>
#> 1 Mazda RX4     21       6   160   110  3.9   2.62  16.5     0     1     4     4
#> 2 Mazda RX4 W…  21       6   160   110  3.9   2.88  17.0     0     1     4     4
#> 3 Datsun 710    22.8     4   108    93  3.85  2.32  18.6     1     1     4     1
#> # … with 29 more rows
…
Then we can efficiently read them into one table by passing the filenames directly to vroom.

files <- fs::dir_ls(glob = "mtcars*csv")
files
#> mtcars_4.csv mtcars_6.csv mtcars_8.csv
vroom(files)
#> Rows: 32
#> Columns: 12
#> Delimiter: "\t"
#> chr [ 1]: model
#> dbl [11]: mpg, cyl, disp, hp, drat, wt, qsec, vs, am, gear, carb
#> 
#> Use `spec()` to retrieve the guessed column specification
#> Pass a specification to the `col_types` argument to quiet this message
#> # A tibble: 32 x 12
#>   model        mpg   cyl  disp    hp  drat    wt  qsec    vs    am  gear  carb
#>   <chr>      <dbl> <dbl> <dbl> <dbl> <dbl> <dbl> <dbl> <dbl> <dbl> <dbl> <dbl>
#> 1 Datsun 710  22.8     4  108     93  3.85  2.32  18.6     1     1     4     1
#> 2 Merc 240D   24.4     4  147.    62  3.69  3.19  20       1     0     4     2
#> 3 Merc 230    22.8     4  141.    95  3.92  3.15  22.9     1     0     4     2
#> # … with 29 more rows

Often the filename or directory where the files are stored contains information. The id parameter can be used to add an extra column to the result with the full path to each file. (in this case we name the column path).

vroom(files, id = "path")
#> Rows: 32
#> Columns: 13
#> Delimiter: "\t"
#> chr [ 1]: model
#> dbl [11]: mpg, cyl, disp, hp, drat, wt, qsec, vs, am, gear, carb
#> 
#> Use `spec()` to retrieve the guessed column specification
#> Pass a specification to the `col_types` argument to quiet this message
#> # A tibble: 32 x 13
#>   path   model   mpg   cyl  disp    hp  drat    wt  qsec    vs    am  gear  carb
#>   <chr>  <chr> <dbl> <dbl> <dbl> <dbl> <dbl> <dbl> <dbl> <dbl> <dbl> <dbl> <dbl>
#> 1 mtcar… Dats…  22.8     4  108     93  3.85  2.32  18.6     1     1     4     1
#> 2 mtcar… Merc…  24.4     4  147.    62  3.69  3.19  20       1     0     4     2
#> 3 mtcar… Merc…  22.8     4  141.    95  3.92  3.15  22.9     1     0     4     2
#> # … with 29 more rows
…
vroom supports reading zip, gz, bz2 and xz compressed files automatically, just pass the filename of the compressed file to vroom.

file <- vroom_example("mtcars.csv.gz")

vroom(file)
#> Rows: 32
#> Columns: 12
#> Delimiter: ","
#> chr [ 1]: model
#> dbl [11]: mpg, cyl, disp, hp, drat, wt, qsec, vs, am, gear, carb
#> 
#> Use `spec()` to retrieve the guessed column specification
#> Pass a specification to the `col_types` argument to quiet this message
#> # A tibble: 32 x 12
#>   model          mpg   cyl  disp    hp  drat    wt  qsec    vs    am  gear  carb
#>   <chr>        <dbl> <dbl> <dbl> <dbl> <dbl> <dbl> <dbl> <dbl> <dbl> <dbl> <dbl>
#> 1 Mazda RX4     21       6   160   110  3.9   2.62  16.5     0     1     4     4
#> 2 Mazda RX4 W…  21       6   160   110  3.9   2.88  17.0     0     1     4     4
#> 3 Datsun 710    22.8     4   108    93  3.85  2.32  18.6     1     1     4     1
#> # … with 29 more rows
…
Reading remote files

vroom can read files directly from the internet as well by passing the URL of the file to vroom.

file <- "https://raw.githubusercontent.com/r-lib/vroom/master/inst/extdata/mtcars.csv"
vroom(file)
#> Rows: 32
#> Columns: 12
#> Delimiter: ","
#> chr [ 1]: model
#> dbl [11]: mpg, cyl, disp, hp, drat, wt, qsec, vs, am, gear, carb
#> 
#> Use `spec()` to retrieve the guessed column specification
#> Pass a specification to the `col_types` argument to quiet this message
#> # A tibble: 32 x 12
#>   model          mpg   cyl  disp    hp  drat    wt  qsec    vs    am  gear  carb
#>   <chr>        <dbl> <dbl> <dbl> <dbl> <dbl> <dbl> <dbl> <dbl> <dbl> <dbl> <dbl>
#> 1 Mazda RX4     21       6   160   110  3.9   2.62  16.5     0     1     4     4
#> 2 Mazda RX4 W…  21       6   160   110  3.9   2.88  17.0     0     1     4     4
#> 3 Datsun 710    22.8     4   108    93  3.85  2.32  18.6     1     1     4     1
#> # … with 29 more rows

It can even read gzipped files from the internet (although not the other compressed formats).

file <- "https://raw.githubusercontent.com/r-lib/vroom/master/inst/extdata/mtcars.csv.gz"
vroom(file)
#> Rows: 32
#> Columns: 12
#> Delimiter: ","
#> chr [ 1]: model
#> dbl [11]: mpg, cyl, disp, hp, drat, wt, qsec, vs, am, gear, carb
#> 
#> Use `spec()` to retrieve the guessed column specification
#> Pass a specification to the `col_types` argument to quiet this message
#> # A tibble: 32 x 12
#>   model          mpg   cyl  disp    hp  drat    wt  qsec    vs    am  gear  carb
#>   <chr>        <dbl> <dbl> <dbl> <dbl> <dbl> <dbl> <dbl> <dbl> <dbl> <dbl> <dbl>
#> 1 Mazda RX4     21       6   160   110  3.9   2.62  16.5     0     1     4     4
#> 2 Mazda RX4 W…  21       6   160   110  3.9   2.88  17.0     0     1     4     4
#> 3 Datsun 710    22.8     4   108    93  3.85  2.32  18.6     1     1     4     1
#> # … with 29 more rows
…
A character vector of column names

file <- vroom_example("mtcars.csv.gz")

vroom(file, col_select = c(model, cyl, gear))
#> Rows: 32
#> Columns: 3
#> Delimiter: ","
#> chr [1]: model
#> dbl [2]: cyl, gear
#> 
#> Use `spec()` to retrieve the guessed column specification
#> Pass a specification to the `col_types` argument to quiet this message
#> # A tibble: 32 x 3
#>   model           cyl  gear
#>   <chr>         <dbl> <dbl>
#> 1 Mazda RX4         6     4
#> 2 Mazda RX4 Wag     6     4
#> 3 Datsun 710        4     4
#> # … with 29 more rows

A numeric vector of column indexes, e.g. c(1, 2, 5)

vroom(file, col_select = c(1, 3, 11))
#> Rows: 32
#> Columns: 3
#> Delimiter: ","
#> chr [1]: model
#> dbl [2]: cyl, gear
#> 
#> Use `spec()` to retrieve the guessed column specification
#> Pass a specification to the `col_types` argument to quiet this message
#> # A tibble: 32 x 3
#>   model           cyl  gear
#>   <chr>         <dbl> <dbl>
#> 1 Mazda RX4         6     4
#> 2 Mazda RX4 Wag     6     4
#> 3 Datsun 710        4     4
#> # … with 29 more rows

Using the selection helpers such as starts_with() and ends_with()

vroom(file, col_select = starts_with("d"))
#> Rows: 32
#> Columns: 2
#> Delimiter: ","
#> dbl [2]: disp, drat
#> 
#> Use `spec()` to retrieve the guessed column specification
#> Pass a specification to the `col_types` argument to quiet this message
#> # A tibble: 32 x 2
#>    disp  drat
#>   <dbl> <dbl>
#> 1   160  3.9 
#> 2   160  3.9 
#> 3   108  3.85
#> # … with 29 more rows

You can also rename columns

vroom(file, col_select = list(car = model, everything()))
#> Rows: 32
#> Columns: 12
#> Delimiter: ","
#> chr [ 1]: model
#> dbl [11]: mpg, cyl, disp, hp, drat, wt, qsec, vs, am, gear, carb
#> 
#> Use `spec()` to retrieve the guessed column specification
#> Pass a specification to the `col_types` argument to quiet this message
#> # A tibble: 32 x 12
#>   car            mpg   cyl  disp    hp  drat    wt  qsec    vs    am  gear  carb
#>   <chr>        <dbl> <dbl> <dbl> <dbl> <dbl> <dbl> <dbl> <dbl> <dbl> <dbl> <dbl>
#> 1 Mazda RX4     21       6   160   110  3.9   2.62  16.5     0     1     4     4
#> 2 Mazda RX4 W…  21       6   160   110  3.9   2.88  17.0     0     1     4     4
#> 3 Datsun 710    22.8     4   108    93  3.85  2.32  18.6     1     1     4     1
#> # … with 29 more rows
…
col_factor(levels, ordered) ‘f’, a fixed set of values.

col_character() ‘c’, everything else.

col_skip() ’_, -’, don’t import this column.

col_guess() ‘?’, parse using the “best” type based on the input.

You can tell vroom what columns to use with the col_types() argument in a number of ways.

If you only need to override a single column the most concise way is to use a named vector.

# read the 'hp' columns as an integer
vroom(vroom_example("mtcars.csv"), col_types = c(hp = "i"))
#> # A tibble: 32 x 12
#>   model          mpg   cyl  disp    hp  drat    wt  qsec    vs    am  gear  carb
#>   <chr>        <dbl> <dbl> <dbl> <int> <dbl> <dbl> <dbl> <dbl> <dbl> <dbl> <dbl>
#> 1 Mazda RX4     21       6   160   110  3.9   2.62  16.5     0     1     4     4
#> 2 Mazda RX4 W…  21       6   160   110  3.9   2.88  17.0     0     1     4     4
#> 3 Datsun 710    22.8     4   108    93  3.85  2.32  18.6     1     1     4     1
#> # … with 29 more rows

# also skip reading the 'cyl' column
vroom(vroom_example("mtcars.csv"), col_types = c(hp = "i", cyl = "_"))
#> # A tibble: 32 x 11
#>   model           mpg  disp    hp  drat    wt  qsec    vs    am  gear  carb
#>   <chr>         <dbl> <dbl> <int> <dbl> <dbl> <dbl> <dbl> <dbl> <dbl> <dbl>
#> 1 Mazda RX4      21     160   110  3.9   2.62  16.5     0     1     4     4
#> 2 Mazda RX4 Wag  21     160   110  3.9   2.88  17.0     0     1     4     4
#> 3 Datsun 710     22.8   108    93  3.85  2.32  18.6     1     1     4     1
#> # … with 29 more rows

# also read the gears as a factor
vroom(vroom_example("mtcars.csv"), col_types = c(hp = "i", cyl = "_", gear = "f"))
#> # A tibble: 32 x 11
#>   model           mpg  disp    hp  drat    wt  qsec    vs    am gear   carb
#>   <chr>         <dbl> <dbl> <int> <dbl> <dbl> <dbl> <dbl> <dbl> <fct> <dbl>
#> 1 Mazda RX4      21     160   110  3.9   2.62  16.5     0     1 4         4
#> 2 Mazda RX4 Wag  21     160   110  3.9   2.88  17.0     0     1 4         4
#> 3 Datsun 710     22.8   108    93  3.85  2.32  18.6     1     1 4         1
#> # … with 29 more rows

You can read all the columns with the same type, by using the .default argument. For example reading everything as a character.

vroom(vroom_example("mtcars.csv"), col_types = c(.default = "c"))
#> # A tibble: 32 x 12
#>   model        mpg   cyl   disp  hp    drat  wt    qsec  vs    am    gear  carb 
#>   <chr>        <chr> <chr> <chr> <chr> <chr> <chr> <chr> <chr> <chr> <chr> <chr>
#> 1 Mazda RX4    21    6     160   110   3.9   2.62  16.46 0     1     4     4    
#> 2 Mazda RX4 W… 21    6     160   110   3.9   2.875 17.02 0     1     4     4    
#> 3 Datsun 710   22.8  4     108   93    3.85  2.32  18.61 1     1     4     1    
#> # … with 29 more rows

However you can also use the col_*() functions in a list.

vroom(
  vroom_example("mtcars.csv"),
  col_types = list(hp = col_integer(), cyl = col_skip(), gear = col_factor())
)
#> # A tibble: 32 x 11
#>   model           mpg  disp    hp  drat    wt  qsec    vs    am gear   carb
#>   <chr>         <dbl> <dbl> <int> <dbl> <dbl> <dbl> <dbl> <dbl> <fct> <dbl>
#> 1 Mazda RX4      21     160   110  3.9   2.62  16.5     0     1 4         4
#> 2 Mazda RX4 Wag  21     160   110  3.9   2.88  17.0     0     1 4         4
#> 3 Datsun 710     22.8   108    93  3.85  2.32  18.6     1     1 4         1
#> # … with 29 more rows

This is most useful when a column type needs additional information, such as for categorical data when you know all of the levels of a factor.

vroom(
  vroom_example("mtcars.csv"),
  col_types = list(gear = col_factor(levels = c(gear = c("3", "4", "5"))))
)
#> # A tibble: 32 x 12
#>   model          mpg   cyl  disp    hp  drat    wt  qsec    vs    am gear   carb
#>   <chr>        <dbl> <dbl> <dbl> <dbl> <dbl> <dbl> <dbl> <dbl> <dbl> <fct> <dbl>
#> 1 Mazda RX4     21       6   160   110  3.9   2.62  16.5     0     1 4         4
#> 2 Mazda RX4 W…  21       6   160   110  3.9   2.88  17.0     0     1 4         4
#> 3 Datsun 710    22.8     4   108    93  3.85  2.32  18.6     1     1 4         1
#> # … with 29 more rows
…
