Generate a random tibble — gen_tbl • vroom
…
# all double 25 x 4 table
dbl_tbl <- gen_tbl(25, 4, col_types = "dddd")
dbl_tbl
#> # A tibble: 25 × 4
#>        X1      X2      X3     X4
#>     <dbl>   <dbl>   <dbl>  <dbl>
#>  1  1.39   1.66    0.573   0.191
#>  2  0.373  2.68    0.620   0.811
#>  3 -0.727 -1.48   -0.138   1.16 
#>  4  0.308 -0.215  -1.83    1.52 
#>  5 -0.713  0.288   1.38   -0.796
#>  6  0.844 -0.881  -0.0373 -0.596
#>  7 -0.612 -0.710   1.15   -0.665
#>  8  1.27  -0.732   0.616   0.675
#>  9  1.34   0.0615  0.620   0.353
#> 10 -0.612 -1.03    0.436  -0.581
#> # … with 15 more rows
…
#> [[1]]
#> <collector_double>
#> 
#> [[2]]
#> <collector_double>
#> 
#> [[3]]
#> <collector_double>
#> 
#> [[4]]
#> <collector_double>
#> 
dbl_tbl2 <- gen_tbl(25, 4, col_types = types)
dbl_tbl2
#> # A tibble: 25 × 4
#>       X1     X2     X3     X4
#>    <dbl>  <dbl>  <dbl>  <dbl>
#>  1 -1.34 10.2   14.2   -7.88 
#>  2 18.6  16.5    5.69  21.6  
#>  3 -8.83  3.72   4.78  24.1  
#>  4 22.4   9.34  -0.390  4.74 
#>  5 -2.06 10.4    1.34  17.8  
#>  6  3.60 -4.64  -1.24  20.9  
#>  7 -3.50  8.37  -6.34  -0.752
#>  8 10.8  20.8   15.8   17.3  
#>  9  2.24 -0.471 -2.04  16.2  
#> 10 11.3  -2.56  24.4    3.34 
#> # … with 15 more rows
…
