…
# all double 25 x 4 table
dbl_tbl <- gen_tbl(25, 4, col_types = "dddd")
dbl_tbl
#> # A tibble: 25 × 4
#>         X1     X2      X3     X4
#>      <dbl>  <dbl>   <dbl>  <dbl>
#>  1 -0.313  -0.246  0.434  -0.442
#>  2  1.07   -1.18  -0.382   0.569
#>  3  0.0700 -0.976  0.424   2.13 
#>  4 -0.639   1.07   1.06    0.425
#>  5 -0.0500  0.132  1.05   -1.68 
#>  6 -0.251   0.489 -0.0381  0.249
#>  7  0.445  -1.70   0.486   1.07 
#>  8  2.76   -1.47   1.67    2.04 
#>  9  0.0465  0.284 -0.354   0.449
#> 10  0.578   1.34   0.946   1.39 
#> # ℹ 15 more rows
…
#> [[1]]
#> <collector_double>
#> 
#> [[2]]
#> <collector_double>
#> 
#> [[3]]
#> <collector_double>
#> 
#> [[4]]
#> <collector_double>
#> 
dbl_tbl2 <- gen_tbl(25, 4, col_types = types)
dbl_tbl2
#> # A tibble: 25 × 4
#>       X1      X2    X3    X4
#>    <dbl>   <dbl> <dbl> <dbl>
#>  1 18.5  -2.86   11.1  16.0 
#>  2 -7.52  9.20   18.2   1.12
#>  3  8.44 19.0    -8.72 -6.09
#>  4 16.7  -5.54   15.7  -6.46
#>  5  5.24 -0.858  -2.47 18.0 
#>  6  9.34  0.0946 -9.44  3.30
#>  7 -2.86 -9.48   -5.50 -8.16
#>  8 -8.91 19.9    14.0  24.5 
#>  9 23.9   4.49   12.5  11.1 
#> 10 -3.75 16.3     1.46 -4.79
#> # ℹ 15 more rows
```
