Generate a random tibble — gen_tbl • vroom
…
# all double 25 x 4 table
dbl_tbl <- gen_tbl(25, 4, col_types = "dddd")
dbl_tbl
#> # A tibble: 25 × 4
#>          X1     X2      X3     X4
#>       <dbl>  <dbl>   <dbl>  <dbl>
#>  1  0.709   -0.897 -0.836   2.17 
#>  2  0.191    0.344 -1.52    0.465
#>  3  0.684   -2.03   0.978  -0.707
#>  4 -0.304   -0.179  1.80   -0.279
#>  5  0.969   -1.45  -0.0472 -1.29 
#>  6  0.508    0.685 -0.391  -0.251
#>  7 -0.00656 -0.755  0.334  -0.458
#>  8 -0.254    0.964  0.623  -0.744
#>  9 -0.517   -0.281 -0.719   1.00 
#> 10  1.74     1.38   1.75    1.54 
#> # … with 15 more rows
…
#> [[1]]
#> <collector_double>
#> 
#> [[2]]
#> <collector_double>
#> 
#> [[3]]
#> <collector_double>
#> 
#> [[4]]
#> <collector_double>
#> 
dbl_tbl2 <- gen_tbl(25, 4, col_types = types)
dbl_tbl2
#> # A tibble: 25 × 4
#>        X1    X2    X3    X4
#>     <dbl> <dbl> <dbl> <dbl>
#>  1 17.3   11.3  -2.78 14.8 
#>  2 18.9   14.5  10.1  -9.13
#>  3 -3.41  12.8  10.2  -1.99
#>  4  1.30  -9.85 13.1  12.3 
#>  5 17.2    8.58 -1.53 14.4 
#>  6 21.6    9.89  5.33 19.0 
#>  7 -5.54  13.1  19.3   8.56
#>  8 21.3   19.2   7.53  9.74
#>  9 11.1   20.7  -3.80  3.25
#> 10  0.135  6.97 14.3  12.8 
#> # … with 15 more rows
…
