Read a delimited file into a tibble — vroom • vroom
…
# Read from a path

# Input sources -------------------------------------------------------------
# Read from a path
vroom(input_file)
#> Rows: 32
#> Columns: 12
#> Delimiter: ","
#> chr [ 1]: model
#> dbl [11]: mpg, cyl, disp, hp, drat, wt, qsec, vs, am, gear, carb
#> 
#> Use `spec()` to retrieve the guessed column specification
#> Pass a specification to the `col_types` argument to quiet this message
#> # A tibble: 32 x 12
#>    model         mpg   cyl  disp    hp  drat    wt  qsec    vs    am  gear  carb
#>    <chr>       <dbl> <dbl> <dbl> <dbl> <dbl> <dbl> <dbl> <dbl> <dbl> <dbl> <dbl>
#>  1 Mazda RX4    21       6  160    110  3.9   2.62  16.5     0     1     4     4
#>  2 Mazda RX4 …  21       6  160    110  3.9   2.88  17.0     0     1     4     4
#>  3 Datsun 710   22.8     4  108     93  3.85  2.32  18.6     1     1     4     1
#>  4 Hornet 4 D…  21.4     6  258    110  3.08  3.22  19.4     1     0     3     1
#>  5 Hornet Spo…  18.7     8  360    175  3.15  3.44  17.0     0     0     3     2
#>  6 Valiant      18.1     6  225    105  2.76  3.46  20.2     1     0     3     1
#>  7 Duster 360   14.3     8  360    245  3.21  3.57  15.8     0     0     3     4
#>  8 Merc 240D    24.4     4  147.    62  3.69  3.19  20       1     0     4     2
#>  9 Merc 230     22.8     4  141.    95  3.92  3.15  22.9     1     0     4     2
#> 10 Merc 280     19.2     6  168.   123  3.92  3.44  18.3     1     0     4     4
#> # … with 22 more rows
…
# Column selection ----------------------------------------------------------
# Pass column names or indexes directly to select them
vroom(input_file, col_select = c(model, cyl, gear))
#> Rows: 32
#> Columns: 3
#> Delimiter: ","
#> chr [1]: model
#> dbl [2]: cyl, gear
#> 
#> Use `spec()` to retrieve the guessed column specification
#> Pass a specification to the `col_types` argument to quiet this message
#> # A tibble: 32 x 3
#>    model               cyl  gear
#>    <chr>             <dbl> <dbl>
#>  1 Mazda RX4             6     4
#>  2 Mazda RX4 Wag         6     4
#>  3 Datsun 710            4     4
#>  4 Hornet 4 Drive        6     3
#>  5 Hornet Sportabout     8     3
#>  6 Valiant               6     3
#>  7 Duster 360            8     3
#>  8 Merc 240D             4     4
#>  9 Merc 230              4     4
#> 10 Merc 280              6     4
#> # … with 22 more rows
vroom(input_file, col_select = c(1, 3, 11))
#> Rows: 32
#> Columns: 3
#> Delimiter: ","
#> chr [1]: model
#> dbl [2]: cyl, gear
#> 
#> Use `spec()` to retrieve the guessed column specification
#> Pass a specification to the `col_types` argument to quiet this message
#> # A tibble: 32 x 3
#>    model               cyl  gear
#>    <chr>             <dbl> <dbl>
#>  1 Mazda RX4             6     4
#>  2 Mazda RX4 Wag         6     4
#>  3 Datsun 710            4     4
#>  4 Hornet 4 Drive        6     3
#>  5 Hornet Sportabout     8     3
#>  6 Valiant               6     3
#>  7 Duster 360            8     3
#>  8 Merc 240D             4     4
#>  9 Merc 230              4     4
#> 10 Merc 280              6     4
#> # … with 22 more rows

# Or use the selection helpers
vroom(input_file, col_select = starts_with("d"))
#> Rows: 32
#> Columns: 2
#> Delimiter: ","
#> dbl [2]: disp, drat
#> 
#> Use `spec()` to retrieve the guessed column specification
#> Pass a specification to the `col_types` argument to quiet this message
#> # A tibble: 32 x 2
#>     disp  drat
#>    <dbl> <dbl>
#>  1  160   3.9 
#>  2  160   3.9 
#>  3  108   3.85
#>  4  258   3.08
#>  5  360   3.15
#>  6  225   2.76
#>  7  360   3.21
#>  8  147.  3.69
#>  9  141.  3.92
#> 10  168.  3.92
#> # … with 22 more rows

# You can also rename specific columns
vroom(input_file, col_select = list(car = model, everything()))
#> Rows: 32
#> Columns: 12
#> Delimiter: ","
#> chr [ 1]: model
#> dbl [11]: mpg, cyl, disp, hp, drat, wt, qsec, vs, am, gear, carb
#> 
#> Use `spec()` to retrieve the guessed column specification
#> Pass a specification to the `col_types` argument to quiet this message
#> # A tibble: 32 x 12
#>    car           mpg   cyl  disp    hp  drat    wt  qsec    vs    am  gear  carb
#>    <chr>       <dbl> <dbl> <dbl> <dbl> <dbl> <dbl> <dbl> <dbl> <dbl> <dbl> <dbl>
#>  1 Mazda RX4    21       6  160    110  3.9   2.62  16.5     0     1     4     4
#>  2 Mazda RX4 …  21       6  160    110  3.9   2.88  17.0     0     1     4     4
#>  3 Datsun 710   22.8     4  108     93  3.85  2.32  18.6     1     1     4     1
#>  4 Hornet 4 D…  21.4     6  258    110  3.08  3.22  19.4     1     0     3     1
#>  5 Hornet Spo…  18.7     8  360    175  3.15  3.44  17.0     0     0     3     2
#>  6 Valiant      18.1     6  225    105  2.76  3.46  20.2     1     0     3     1
#>  7 Duster 360   14.3     8  360    245  3.21  3.57  15.8     0     0     3     4
#>  8 Merc 240D    24.4     4  147.    62  3.69  3.19  20       1     0     4     2
#>  9 Merc 230     22.8     4  141.    95  3.92  3.15  22.9     1     0     4     2
#> 10 Merc 280     19.2     6  168.   123  3.92  3.44  18.3     1     0     4     4
#> # … with 22 more rows
…
