…
# Read from a path

# Input sources -------------------------------------------------------------
# Read from a path
vroom(input_file)
#> Rows: 32 Columns: 12
#> ── Column specification ───────────────────────────────────────────────
#> Delimiter: ","
#> chr  (1): model
#> dbl (11): mpg, cyl, disp, hp, drat, wt, qsec, vs, am, gear, carb
#> 
#> ℹ Use `spec()` to retrieve the full column specification for this data.
#> ℹ Specify the column types or set `show_col_types = FALSE` to quiet this message.
#> # A tibble: 32 × 12
#>    model      mpg   cyl  disp    hp  drat    wt  qsec    vs    am  gear
#>    <chr>    <dbl> <dbl> <dbl> <dbl> <dbl> <dbl> <dbl> <dbl> <dbl> <dbl>
#>  1 Mazda R…  21       6  160    110  3.9   2.62  16.5     0     1     4
#>  2 Mazda R…  21       6  160    110  3.9   2.88  17.0     0     1     4
#>  3 Datsun …  22.8     4  108     93  3.85  2.32  18.6     1     1     4
#>  4 Hornet …  21.4     6  258    110  3.08  3.22  19.4     1     0     3
#>  5 Hornet …  18.7     8  360    175  3.15  3.44  17.0     0     0     3
#>  6 Valiant   18.1     6  225    105  2.76  3.46  20.2     1     0     3
#>  7 Duster …  14.3     8  360    245  3.21  3.57  15.8     0     0     3
#>  8 Merc 24…  24.4     4  147.    62  3.69  3.19  20       1     0     4
#>  9 Merc 230  22.8     4  141.    95  3.92  3.15  22.9     1     0     4
#> 10 Merc 280  19.2     6  168.   123  3.92  3.44  18.3     1     0     4
#> # ℹ 22 more rows
#> # ℹ 1 more variable: carb <dbl>
…
# Column selection ----------------------------------------------------------
# Pass column names or indexes directly to select them
vroom(input_file, col_select = c(model, cyl, gear))
#> Rows: 32 Columns: 3
#> ── Column specification ───────────────────────────────────────────────
#> Delimiter: ","
#> chr (1): model
#> dbl (2): cyl, gear
#> 
#> ℹ Use `spec()` to retrieve the full column specification for this data.
#> ℹ Specify the column types or set `show_col_types = FALSE` to quiet this message.
#> # A tibble: 32 × 3
#>    model               cyl  gear
#>    <chr>             <dbl> <dbl>
#>  1 Mazda RX4             6     4
#>  2 Mazda RX4 Wag         6     4
#>  3 Datsun 710            4     4
#>  4 Hornet 4 Drive        6     3
#>  5 Hornet Sportabout     8     3
#>  6 Valiant               6     3
#>  7 Duster 360            8     3
#>  8 Merc 240D             4     4
#>  9 Merc 230              4     4
#> 10 Merc 280              6     4
#> # ℹ 22 more rows
vroom(input_file, col_select = c(1, 3, 11))
#> Rows: 32 Columns: 3
#> ── Column specification ───────────────────────────────────────────────
#> Delimiter: ","
#> chr (1): model
#> dbl (2): cyl, gear
#> 
#> ℹ Use `spec()` to retrieve the full column specification for this data.
#> ℹ Specify the column types or set `show_col_types = FALSE` to quiet this message.
#> # A tibble: 32 × 3
#>    model               cyl  gear
#>    <chr>             <dbl> <dbl>
#>  1 Mazda RX4             6     4
#>  2 Mazda RX4 Wag         6     4
#>  3 Datsun 710            4     4
#>  4 Hornet 4 Drive        6     3
#>  5 Hornet Sportabout     8     3
#>  6 Valiant               6     3
#>  7 Duster 360            8     3
#>  8 Merc 240D             4     4
#>  9 Merc 230              4     4
#> 10 Merc 280              6     4
#> # ℹ 22 more rows

# Or use the selection helpers
vroom(input_file, col_select = starts_with("d"))
#> Rows: 32 Columns: 2
#> ── Column specification ───────────────────────────────────────────────
#> Delimiter: ","
#> dbl (2): disp, drat
#> 
#> ℹ Use `spec()` to retrieve the full column specification for this data.
#> ℹ Specify the column types or set `show_col_types = FALSE` to quiet this message.
#> # A tibble: 32 × 2
#>     disp  drat
#>    <dbl> <dbl>
#>  1  160   3.9 
#>  2  160   3.9 
#>  3  108   3.85
#>  4  258   3.08
#>  5  360   3.15
#>  6  225   2.76
#>  7  360   3.21
#>  8  147.  3.69
#>  9  141.  3.92
#> 10  168.  3.92
#> # ℹ 22 more rows

# You can also rename specific columns
vroom(input_file, col_select = c(car = model, everything()))
#> Rows: 32 Columns: 12
#> ── Column specification ───────────────────────────────────────────────
#> Delimiter: ","
#> chr  (1): model
#> dbl (11): mpg, cyl, disp, hp, drat, wt, qsec, vs, am, gear, carb
#> 
#> ℹ Use `spec()` to retrieve the full column specification for this data.
#> ℹ Specify the column types or set `show_col_types = FALSE` to quiet this message.
#> # A tibble: 32 × 12
#>    car        mpg   cyl  disp    hp  drat    wt  qsec    vs    am  gear
#>    <chr>    <dbl> <dbl> <dbl> <dbl> <dbl> <dbl> <dbl> <dbl> <dbl> <dbl>
#>  1 Mazda R…  21       6  160    110  3.9   2.62  16.5     0     1     4
#>  2 Mazda R…  21       6  160    110  3.9   2.88  17.0     0     1     4
#>  3 Datsun …  22.8     4  108     93  3.85  2.32  18.6     1     1     4
#>  4 Hornet …  21.4     6  258    110  3.08  3.22  19.4     1     0     3
#>  5 Hornet …  18.7     8  360    175  3.15  3.44  17.0     0     0     3
#>  6 Valiant   18.1     6  225    105  2.76  3.46  20.2     1     0     3
#>  7 Duster …  14.3     8  360    245  3.21  3.57  15.8     0     0     3
#>  8 Merc 24…  24.4     4  147.    62  3.69  3.19  20       1     0     4
#>  9 Merc 230  22.8     4  141.    95  3.92  3.15  22.9     1     0     4
#> 10 Merc 280  19.2     6  168.   123  3.92  3.44  18.3     1     0     4
#> # ℹ 22 more rows
#> # ℹ 1 more variable: carb <dbl>
…
# Pass the filenames directly to vroom, they are efficiently combined
vroom(mtcars_by_cyl)
#> Rows: 43 Columns: 12
#> ── Column specification ───────────────────────────────────────────────
#> Delimiter: ","
#> chr  (1): model
#> dbl (11): mpg, cyl, disp, hp, drat, wt, qsec, vs, am, gear, carb
#> 
#> ℹ Use `spec()` to retrieve the full column specification for this data.
#> ℹ Specify the column types or set `show_col_types = FALSE` to quiet this message.
#> # A tibble: 43 × 12
#>    model      mpg   cyl  disp    hp  drat    wt  qsec    vs    am  gear
#>    <chr>    <dbl> <dbl> <dbl> <dbl> <dbl> <dbl> <dbl> <dbl> <dbl> <dbl>
#>  1 Datsun …  22.8     4 108      93  3.85  2.32  18.6     1     1     4
#>  2 Merc 24…  24.4     4 147.     62  3.69  3.19  20       1     0     4
#>  3 Merc 230  22.8     4 141.     95  3.92  3.15  22.9     1     0     4
#>  4 Fiat 128  32.4     4  78.7    66  4.08  2.2   19.5     1     1     4
#>  5 Honda C…  30.4     4  75.7    52  4.93  1.62  18.5     1     1     4
#>  6 Toyota …  33.9     4  71.1    65  4.22  1.84  19.9     1     1     4
#>  7 Toyota …  21.5     4 120.     97  3.7   2.46  20.0     1     0     3
#>  8 Fiat X1…  27.3     4  79      66  4.08  1.94  18.9     1     1     4
#>  9 Porsche…  26       4 120.     91  4.43  2.14  16.7     0     1     5
#> 10 Lotus E…  30.4     4  95.1   113  3.77  1.51  16.9     1     1     5
#> # ℹ 33 more rows
#> # ℹ 1 more variable: carb <dbl>

# If you need to extract data from the filenames, use `id` to request a
# column that reveals the underlying file path
dat <- vroom(mtcars_by_cyl, id = "source")
#> Rows: 43 Columns: 13
#> ── Column specification ───────────────────────────────────────────────
#> Delimiter: ","
#> chr  (1): model
#> dbl (11): mpg, cyl, disp, hp, drat, wt, qsec, vs, am, gear, carb
#> 
#> ℹ Use `spec()` to retrieve the full column specification for this data.
#> ℹ Specify the column types or set `show_col_types = FALSE` to quiet this message.
dat$source <- basename(dat$source)
dat
#> # A tibble: 43 × 13
#>    source   model   mpg   cyl  disp    hp  drat    wt  qsec    vs    am
#>    <chr>    <chr> <dbl> <dbl> <dbl> <dbl> <dbl> <dbl> <dbl> <dbl> <dbl>
#>  1 mtcars-… Dats…  22.8     4 108      93  3.85  2.32  18.6     1     1
#>  2 mtcars-… Merc…  24.4     4 147.     62  3.69  3.19  20       1     0
#>  3 mtcars-… Merc…  22.8     4 141.     95  3.92  3.15  22.9     1     0
#>  4 mtcars-… Fiat…  32.4     4  78.7    66  4.08  2.2   19.5     1     1
#>  5 mtcars-… Hond…  30.4     4  75.7    52  4.93  1.62  18.5     1     1
#>  6 mtcars-… Toyo…  33.9     4  71.1    65  4.22  1.84  19.9     1     1
#>  7 mtcars-… Toyo…  21.5     4 120.     97  3.7   2.46  20.0     1     0
#>  8 mtcars-… Fiat…  27.3     4  79      66  4.08  1.94  18.9     1     1
#>  9 mtcars-… Pors…  26       4 120.     91  4.43  2.14  16.7     0     1
#> 10 mtcars-… Lotu…  30.4     4  95.1   113  3.77  1.51  16.9     1     1
#> # ℹ 33 more rows
#> # ℹ 2 more variables: gear <dbl>, carb <dbl>
```
